<?xml version="1.0" encoding="UTF-8" standalone="no"?>
<svg
   xmlns:dc="http://purl.org/dc/elements/1.1/"
   xmlns:cc="http://creativecommons.org/ns#"
   xmlns:rdf="http://www.w3.org/1999/02/22-rdf-syntax-ns#"
   xmlns:svg="http://www.w3.org/2000/svg"
   xmlns="http://www.w3.org/2000/svg"
   xmlns:sodipodi="http://sodipodi.sourceforge.net/DTD/sodipodi-0.dtd"
   xmlns:inkscape="http://www.inkscape.org/namespaces/inkscape"
   width="27.499998mm"
   height="14.483589mm"
   viewBox="0 0 27.499998 14.483589"
   version="1.1"
   id="svg8"
   inkscape:version="1.0.2 (1.0.2+r75+1)"
   sodipodi:docname="MultiPipeline.svg"
   inkscape:export-filename="/home/clemens/Projects/userdocu/docs/DataExplanations/GeneralInformation/MultiPipeline.png"
   inkscape:export-xdpi="300"
   inkscape:export-ydpi="300">
  <defs
     id="defs2">
    <marker
       style="overflow:visible"
       id="Arrow1Mend"
       refX="0"
       refY="0"
       orient="auto"
       inkscape:stockid="Arrow1Mend"
       inkscape:isstock="true">
      <path
         transform="matrix(-0.4,0,0,-0.4,-4,0)"
         style="fill:#000000;fill-opacity:1;fill-rule:evenodd;stroke:#000000;stroke-width:1pt;stroke-opacity:1"
         d="M 0,0 5,-5 -12.5,0 5,5 Z"
         id="path927" />
    </marker>
    <marker
       style="overflow:visible"
       id="Arrow1Mstart"
       refX="0"
       refY="0"
       orient="auto"
       inkscape:stockid="Arrow1Mstart"
       inkscape:isstock="true">
      <path
         transform="matrix(0.4,0,0,0.4,4,0)"
         style="fill:#000000;fill-opacity:1;fill-rule:evenodd;stroke:#000000;stroke-width:1pt;stroke-opacity:1"
         d="M 0,0 5,-5 -12.5,0 5,5 Z"
         id="path924" />
    </marker>
    <marker
       style="overflow:visible"
       id="Arrow1Mend-6"
       refX="0"
       refY="0"
       orient="auto"
       inkscape:stockid="Arrow1Mend"
       inkscape:isstock="true">
      <path
         transform="matrix(-0.4,0,0,-0.4,-4,0)"
         style="fill:#000000;fill-opacity:1;fill-rule:evenodd;stroke:#000000;stroke-width:1pt;stroke-opacity:1"
         d="M 0,0 5,-5 -12.5,0 5,5 Z"
         id="path927-2" />
    </marker>
    <marker
       style="overflow:visible"
       id="Arrow1Mend-60"
       refX="0"
       refY="0"
       orient="auto"
       inkscape:stockid="Arrow1Mend"
       inkscape:isstock="true">
      <path
         transform="matrix(-0.4,0,0,-0.4,-4,0)"
         style="fill:#000000;fill-opacity:1;fill-rule:evenodd;stroke:#000000;stroke-width:1pt;stroke-opacity:1"
         d="M 0,0 5,-5 -12.5,0 5,5 Z"
         id="path927-6" />
    </marker>
    <marker
       style="overflow:visible"
       id="Arrow1Mend-60-6"
       refX="0"
       refY="0"
       orient="auto"
       inkscape:stockid="Arrow1Mend"
       inkscape:isstock="true">
      <path
         transform="matrix(-0.4,0,0,-0.4,-4,0)"
         style="fill:#000000;fill-opacity:1;fill-rule:evenodd;stroke:#000000;stroke-width:1pt;stroke-opacity:1"
         d="M 0,0 5,-5 -12.5,0 5,5 Z"
         id="path927-6-1" />
    </marker>
    <marker
       style="overflow:visible"
       id="Arrow1Mend-60-7"
       refX="0"
       refY="0"
       orient="auto"
       inkscape:stockid="Arrow1Mend"
       inkscape:isstock="true">
      <path
         transform="matrix(-0.4,0,0,-0.4,-4,0)"
         style="fill:#000000;fill-opacity:1;fill-rule:evenodd;stroke:#000000;stroke-width:1pt;stroke-opacity:1"
         d="M 0,0 5,-5 -12.5,0 5,5 Z"
         id="path927-6-9" />
    </marker>
    <marker
       style="overflow:visible"
       id="Arrow1Mend-0"
       refX="0"
       refY="0"
       orient="auto"
       inkscape:stockid="Arrow1Mend"
       inkscape:isstock="true">
      <path
         transform="matrix(-0.4,0,0,-0.4,-4,0)"
         style="fill:#000000;fill-opacity:1;fill-rule:evenodd;stroke:#000000;stroke-width:1pt;stroke-opacity:1"
         d="M 0,0 5,-5 -12.5,0 5,5 Z"
         id="path927-23" />
    </marker>
    <marker
       style="overflow:visible"
       id="Arrow1Mend-60-75"
       refX="0"
       refY="0"
       orient="auto"
       inkscape:stockid="Arrow1Mend"
       inkscape:isstock="true">
      <path
         transform="matrix(-0.4,0,0,-0.4,-4,0)"
         style="fill:#000000;fill-opacity:1;fill-rule:evenodd;stroke:#000000;stroke-width:1pt;stroke-opacity:1"
         d="M 0,0 5,-5 -12.5,0 5,5 Z"
         id="path927-6-92" />
    </marker>
    <marker
       style="overflow:visible"
       id="Arrow1Mend-60-6-2"
       refX="0"
       refY="0"
       orient="auto"
       inkscape:stockid="Arrow1Mend"
       inkscape:isstock="true">
      <path
         transform="matrix(-0.4,0,0,-0.4,-4,0)"
         style="fill:#000000;fill-opacity:1;fill-rule:evenodd;stroke:#000000;stroke-width:1pt;stroke-opacity:1"
         d="M 0,0 5,-5 -12.5,0 5,5 Z"
         id="path927-6-1-8" />
    </marker>
    <marker
       style="overflow:visible"
       id="Arrow1Mend-60-7-9"
       refX="0"
       refY="0"
       orient="auto"
       inkscape:stockid="Arrow1Mend"
       inkscape:isstock="true">
      <path
         transform="matrix(-0.4,0,0,-0.4,-4,0)"
         style="fill:#000000;fill-opacity:1;fill-rule:evenodd;stroke:#000000;stroke-width:1pt;stroke-opacity:1"
         d="M 0,0 5,-5 -12.5,0 5,5 Z"
         id="path927-6-9-7" />
    </marker>
  </defs>
  <sodipodi:namedview
     id="base"
     pagecolor="#ffffff"
     bordercolor="#666666"
     borderopacity="1.0"
     inkscape:pageopacity="0.0"
     inkscape:pageshadow="2"
     inkscape:zoom="6.7667744"
     inkscape:cx="40.372993"
     inkscape:cy="18.643247"
     inkscape:document-units="mm"
     inkscape:current-layer="layer1"
     inkscape:document-rotation="0"
     showgrid="false"
     inkscape:window-width="1872"
     inkscape:window-height="1016"
     inkscape:window-x="48"
     inkscape:window-y="27"
     inkscape:window-maximized="1"
     fit-margin-top="0"
     fit-margin-left="0"
     fit-margin-right="0"
     fit-margin-bottom="0" />
  <metadata
     id="metadata5">
    <rdf:RDF>
      <cc:Work
         rdf:about="">
        <dc:format>image/svg+xml</dc:format>
        <dc:type
           rdf:resource="http://purl.org/dc/dcmitype/StillImage" />
        <dc:title></dc:title>
      </cc:Work>
    </rdf:RDF>
  </metadata>
  <g
     inkscape:label="Layer 1"
     inkscape:groupmode="layer"
     id="layer1"
     transform="translate(-29.750001,-49.750003)">
    <rect
       style="fill:none;stroke:#000000;stroke-width:0.0925926;stroke-miterlimit:4;stroke-dasharray:none;stroke-dashoffset:0;stroke-opacity:1"
       id="rect833-3"
       width="7.4074078"
       height="3.2798855"
       x="29.796297"
       y="55.351852" />
    <g
       id="g1512"
       transform="translate(9.9999996)">
      <rect
         style="fill:none;stroke:#000000;stroke-width:0.0925926;stroke-miterlimit:4;stroke-dasharray:none;stroke-dashoffset:0;stroke-opacity:1"
         id="rect833"
         width="7.4074078"
         height="3.2798855"
         x="29.796297"
         y="49.796299" />
      <text
         xml:space="preserve"
         style="font-style:normal;font-weight:normal;font-size:0.914609px;line-height:1.25;font-family:sans-serif;fill:#000000;fill-opacity:1;stroke:none;stroke-width:0.0489969"
         x="29.981554"
         y="50.695496"
         id="text866"><tspan
           sodipodi:role="line"
           id="tspan864"
           x="29.981554"
           y="50.695496"
           style="font-size:0.914609px;stroke-width:0.0489969">InputFilter</tspan></text>
    </g>
    <g
       id="g1517"
       transform="translate(9.9999996)">
      <rect
         style="fill:none;stroke:#000000;stroke-width:0.0925926;stroke-miterlimit:4;stroke-dasharray:none;stroke-dashoffset:0;stroke-opacity:1"
         id="rect833-6"
         width="7.4074078"
         height="3.2798855"
         x="29.796297"
         y="60.90741" />
      <text
         xml:space="preserve"
         style="font-style:normal;font-weight:normal;font-size:0.914609px;line-height:1.25;font-family:sans-serif;fill:#000000;fill-opacity:1;stroke:none;stroke-width:0.0489969"
         x="30.031937"
         y="61.941452"
         id="text866-7"><tspan
           sodipodi:role="line"
           id="tspan864-5"
           x="30.031937"
           y="61.941452"
           style="font-size:0.914609px;stroke-width:0.0489969">OutputFilter</tspan></text>
    </g>
    <text
       xml:space="preserve"
       style="font-style:normal;font-weight:normal;font-size:0.914609px;line-height:1.25;font-family:sans-serif;fill:#000000;fill-opacity:1;stroke:none;stroke-width:0.0489969"
       x="29.952843"
       y="56.279739"
       id="text866-7-3"><tspan
         sodipodi:role="line"
         id="tspan864-5-5"
         x="29.952843"
         y="56.279739"
         style="font-size:0.914609px;stroke-width:0.0489969">Filter 1</tspan></text>
    <rect
       style="fill:none;stroke:#000000;stroke-width:0.0925926;stroke-miterlimit:4;stroke-dasharray:none;stroke-dashoffset:0;stroke-opacity:1"
       id="rect833-3-1"
       width="7.4074078"
       height="3.2798855"
       x="39.796295"
       y="55.352299" />
    <rect
       style="fill:none;stroke:#000000;stroke-width:0.0925926;stroke-miterlimit:4;stroke-dasharray:none;stroke-dashoffset:0;stroke-opacity:1"
       id="rect833-3-2"
       width="7.4074078"
       height="3.2798855"
       x="49.796295"
       y="55.352299" />
    <text
       xml:space="preserve"
       style="font-style:normal;font-weight:normal;font-size:0.914609px;line-height:1.25;font-family:sans-serif;fill:#000000;fill-opacity:1;stroke:none;stroke-width:0.0489969"
       x="40.075237"
       y="56.279888"
       id="text866-7-3-7"><tspan
         sodipodi:role="line"
         id="tspan864-5-5-0"
         x="40.075237"
         y="56.279888"
         style="font-size:0.914609px;stroke-width:0.0489969">Filter 2</tspan></text>
    <text
       xml:space="preserve"
       style="font-style:normal;font-weight:normal;font-size:0.914609px;line-height:1.25;font-family:sans-serif;fill:#000000;fill-opacity:1;stroke:none;stroke-width:0.0489969"
       x="49.983337"
       y="56.232109"
       id="text866-7-3-7-9"><tspan
         sodipodi:role="line"
         id="tspan864-5-5-0-3"
         x="49.983337"
         y="56.232109"
         style="font-size:0.914609px;stroke-width:0.0489969">Filter 3</tspan></text>
    <g
       id="g2019">
      <path
         style="fill:none;stroke:#000000;stroke-width:0.0740741;stroke-linecap:butt;stroke-linejoin:miter;stroke-miterlimit:4;stroke-dasharray:none;stroke-opacity:1;marker-end:url(#Arrow1Mend)"
         d="m 33.525029,54.095842 v 1.069392"
         id="path916"
         sodipodi:nodetypes="cc" />
      <path
         style="fill:none;stroke:#000000;stroke-width:0.0740741;stroke-linecap:butt;stroke-linejoin:miter;stroke-miterlimit:4;stroke-dasharray:none;stroke-opacity:1;marker-end:url(#Arrow1Mend-60)"
         d="m 43.506084,54.096001 v 1.069392"
         id="path916-2"
         sodipodi:nodetypes="cc" />
      <path
         style="fill:none;stroke:#000000;stroke-width:0.0740741;stroke-linecap:butt;stroke-linejoin:miter;stroke-miterlimit:4;stroke-dasharray:none;stroke-opacity:1;marker-end:url(#Arrow1Mend-60-6)"
         d="m 53.544084,54.096001 v 1.069392"
         id="path916-2-8"
         sodipodi:nodetypes="cc" />
      <path
         style="fill:none;stroke:#000000;stroke-width:0.0740741;stroke-linecap:butt;stroke-linejoin:miter;stroke-miterlimit:4;stroke-dasharray:none;stroke-opacity:1;marker-end:url(#Arrow1Mend-60-7)"
         d="M 43.506084,54.32537 V 53.255978"
         id="path916-2-2"
         sodipodi:nodetypes="cc" />
      <path
         style="fill:none;stroke:#000000;stroke-width:0.074;stroke-linecap:butt;stroke-linejoin:miter;stroke-miterlimit:4;stroke-dasharray:none;stroke-opacity:1"
         d="M 53.544083,54.096001 33.525029,54.095842"
         id="path1922" />
    </g>
    <g
       id="g2019-3"
       transform="matrix(1,0,0,-1,5.4571036e-5,113.98037)">
      <path
         style="fill:none;stroke:#000000;stroke-width:0.0740741;stroke-linecap:butt;stroke-linejoin:miter;stroke-miterlimit:4;stroke-dasharray:none;stroke-opacity:1;marker-end:url(#Arrow1Mend-0)"
         d="m 33.525029,54.095842 v 1.069392"
         id="path916-6"
         sodipodi:nodetypes="cc" />
      <path
         style="fill:none;stroke:#000000;stroke-width:0.0740741;stroke-linecap:butt;stroke-linejoin:miter;stroke-miterlimit:4;stroke-dasharray:none;stroke-opacity:1;marker-end:url(#Arrow1Mend-60-75)"
         d="m 43.506084,54.096001 v 1.069392"
         id="path916-2-1"
         sodipodi:nodetypes="cc" />
      <path
         style="fill:none;stroke:#000000;stroke-width:0.0740741;stroke-linecap:butt;stroke-linejoin:miter;stroke-miterlimit:4;stroke-dasharray:none;stroke-opacity:1;marker-end:url(#Arrow1Mend-60-6-2)"
         d="m 53.544084,54.096001 v 1.069392"
         id="path916-2-8-2"
         sodipodi:nodetypes="cc" />
      <path
         style="fill:none;stroke:#000000;stroke-width:0.0740741;stroke-linecap:butt;stroke-linejoin:miter;stroke-miterlimit:4;stroke-dasharray:none;stroke-opacity:1;marker-end:url(#Arrow1Mend-60-7-9)"
         d="M 43.506084,54.32537 V 53.255978"
         id="path916-2-2-9"
         sodipodi:nodetypes="cc" />
      <path
         style="fill:none;stroke:#000000;stroke-width:0.074;stroke-linecap:butt;stroke-linejoin:miter;stroke-miterlimit:4;stroke-dasharray:none;stroke-opacity:1"
         d="M 53.544083,54.096001 33.525029,54.095842"
         id="path1922-3" />
    </g>
  </g>
</svg>
