2.0,0.0
1.9996953903127825,0.03490481287456702
1.9987816540381915,0.06979899340500194
1.9972590695091477,0.10467191248588767
1.9951281005196484,0.1395129474882506
1.992389396183491,0.17431148549531633
1.9890437907365466,0.20905692653530694
1.985092303282644,0.24373868681029495
1.9805361374831407,0.2783462019201309
1.9753766811902755,0.31286893008046174
1.969615506024416,0.34729635533386066
1.963254366895328,0.3816179907530896
1.9562952014676114,0.4158233816355187
1.9487401295704705,0.44990210868773
1.940591452551993,0.48384379119933546
1.9318516525781366,0.5176380902050415
1.9225233918766378,0.5512747116339983
1.9126095119260709,0.5847434094454735
1.902113032590307,0.6180339887498948
1.8910371511986337,0.6511363089143134
1.8793852415718169,0.6840402866513374
1.8671608529944035,0.7167358990906005
1.8543677091335748,0.749213186831824
1.8410097069048807,0.7814622569785475
1.8270909152852017,0.8134732861516004
1.8126155740732999,0.8452365234813989
1.797588092598334,0.8767422935781548
1.7820130483767358,0.9079809994790935
1.765895185717854,0.9389431255717816
1.7492394142787915,0.9696192404926741
1.7320508075688774,0.9999999999999999
1.7143346014042247,1.0300761498201083
1.696096192312852,1.0598385284664098
1.677341135890848,1.0892780700300542
1.6580751451100832,1.1183858069414938
1.6383040885779836,1.147152872702092
1.618033988749895,1.1755705045849463
1.5972710200945857,1.2036300463040965
1.5760215072134438,1.2313229506513166
1.5542919229139418,1.2586407820996748
1.532088886237956,1.2855752193730785
1.509419160445544,1.3121180579810146
1.4862896509547885,1.3382612127177165
1.462707403238341,1.363996720124997
1.4386796006773024,1.3893167409179945
1.4142135623730951,1.414213562373095
1.3893167409179945,1.4386796006773022
1.363996720124997,1.462707403238341
1.3382612127177165,1.4862896509547885
1.3121180579810146,1.509419160445544
1.2855752193730787,1.532088886237956
1.258640782099675,1.5542919229139418
1.2313229506513166,1.576021507213444
1.2036300463040968,1.5972710200945857
1.1755705045849463,1.618033988749895
1.1471528727020923,1.6383040885779836
1.1183858069414936,1.6580751451100835
1.0892780700300542,1.677341135890848
1.0598385284664098,1.696096192312852
1.0300761498201083,1.7143346014042247
1.0000000000000002,1.7320508075688772
0.9696192404926742,1.7492394142787915
0.9389431255717817,1.7658951857178538
0.9079809994790936,1.7820130483767356
0.8767422935781549,1.797588092598334
0.8452365234813989,1.8126155740732999
0.8134732861516004,1.8270909152852017
0.7814622569785474,1.8410097069048807
0.7492131868318239,1.8543677091335748
0.7167358990906008,1.8671608529944035
0.6840402866513376,1.8793852415718166
0.6511363089143135,1.8910371511986335
0.6180339887498949,1.902113032590307
0.5847434094454735,1.9126095119260709
0.5512747116339983,1.9225233918766378
0.5176380902050415,1.9318516525781366
0.48384379119933535,1.940591452551993
0.44990210868772984,1.9487401295704705
0.4158233816355189,1.9562952014676112
0.38161799075308983,1.963254366895328
0.34729635533386083,1.969615506024416
0.31286893008046185,1.9753766811902755
0.27834620192013093,1.9805361374831407
0.24373868681029498,1.985092303282644
0.20905692653530691,1.9890437907365466
0.17431148549531628,1.992389396183491
0.13951294748825047,1.9951281005196484
0.10467191248588793,1.9972590695091477
0.06979899340500216,1.9987816540381915
0.0349048128745672,1.9996953903127825
1.2246467991473532e-16,2.0
-0.034904812874566954,1.9996953903127825
-0.06979899340500191,1.9987816540381915
-0.10467191248588768,1.9972590695091477
-0.13951294748825066,1.9951281005196484
-0.17431148549531647,1.992389396183491
-0.2090569265353071,1.9890437907365466
-0.24373868681029473,1.9850923032826442
-0.2783462019201307,1.9805361374831407
-0.3128689300804616,1.9753766811902755
-0.3472963553338606,1.969615506024416
-0.3816179907530896,1.963254366895328
-0.4158233816355187,1.9562952014676114
-0.44990210868773006,1.9487401295704705
-0.48384379119933557,1.940591452551993
-0.5176380902050417,1.9318516525781366
-0.5512747116339981,1.9225233918766378
-0.5847434094454733,1.912609511926071
-0.6180339887498947,1.9021130325903073
-0.6511363089143133,1.8910371511986337
-0.6840402866513374,1.8793852415718169
-0.7167358990906005,1.8671608529944035
-0.7492131868318241,1.8543677091335748
-0.7814622569785475,1.8410097069048805
-0.8134732861516005,1.8270909152852017
-0.8452365234813987,1.8126155740733
-0.876742293578155,1.7975880925983339
-0.9079809994790934,1.7820130483767358
-0.9389431255717818,1.7658951857178538
-0.969619240492674,1.7492394142787917
-0.9999999999999996,1.7320508075688774
-1.0300761498201085,1.7143346014042247
-1.0598385284664096,1.6960961923128521
-1.0892780700300542,1.6773411358908479
-1.1183858069414934,1.6580751451100835
-1.1471528727020923,1.6383040885779834
-1.175570504584946,1.618033988749895
-1.2036300463040968,1.5972710200945854
-1.2313229506513166,1.576021507213444
-1.2586407820996746,1.554291922913942
-1.2855752193730787,1.532088886237956
-1.3121180579810143,1.5094191604455443
-1.3382612127177165,1.4862896509547885
-1.3639967201249967,1.4627074032383411
-1.3893167409179947,1.4386796006773022
-1.414213562373095,1.4142135623730951
-1.4386796006773024,1.3893167409179943
-1.462707403238341,1.3639967201249972
-1.486289650954788,1.3382612127177167
-1.509419160445544,1.3121180579810146
-1.5320888862379558,1.285575219373079
-1.5542919229139418,1.2586407820996748
-1.5760215072134438,1.2313229506513168
-1.5972710200945859,1.2036300463040963
-1.6180339887498947,1.1755705045849465
-1.6383040885779838,1.1471528727020919
-1.6580751451100832,1.1183858069414938
-1.6773411358908479,1.0892780700300546
-1.696096192312852,1.0598385284664098
-1.7143346014042244,1.0300761498201088
-1.7320508075688774,0.9999999999999999
-1.7492394142787915,0.9696192404926743
-1.765895185717854,0.9389431255717814
-1.7820130483767356,0.9079809994790937
-1.797588092598334,0.8767422935781546
-1.8126155740732999,0.845236523481399
-1.8270909152852015,0.8134732861516009
-1.8410097069048807,0.7814622569785475
-1.8543677091335746,0.7492131868318245
-1.8671608529944035,0.7167358990906004
-1.8793852415718166,0.6840402866513378
-1.8910371511986337,0.6511363089143132
-1.902113032590307,0.618033988749895
-1.912609511926071,0.5847434094454732
-1.9225233918766378,0.5512747116339984
-1.9318516525781364,0.517638090205042
-1.940591452551993,0.48384379119933546
-1.9487401295704703,0.4499021086877304
-1.9562952014676114,0.41582338163551863
-1.963254366895328,0.38161799075308994
-1.969615506024416,0.34729635533386055
-1.9753766811902753,0.31286893008046196
-1.9805361374831407,0.27834620192013065
-1.985092303282644,0.2437386868102951
-1.9890437907365466,0.20905692653530747
-1.992389396183491,0.1743114854953164
-1.9951281005196484,0.13951294748825105
-1.9972590695091477,0.10467191248588761
-1.9987816540381915,0.06979899340500229
-1.9996953903127825,0.03490481287456688
-2.0,2.4492935982947064e-16
-1.9996953903127825,-0.03490481287456727
-1.9987816540381915,-0.0697989934050018
-1.9972590695091477,-0.10467191248588713
-1.9951281005196484,-0.13951294748825055
-1.992389396183491,-0.1743114854953159
-1.9890437907365466,-0.209056926535307
-1.9850923032826442,-0.24373868681029462
-1.9805361374831405,-0.27834620192013104
-1.9753766811902755,-0.31286893008046146
-1.969615506024416,-0.34729635533386094
-1.963254366895328,-0.38161799075308944
-1.9562952014676112,-0.415823381635519
-1.9487401295704705,-0.44990210868772995
-1.940591452551993,-0.483843791199335
-1.9318516525781366,-0.5176380902050416
-1.9225233918766378,-0.551274711633998
-1.9126095119260709,-0.5847434094454735
-1.9021130325903073,-0.6180339887498946
-1.8910371511986335,-0.6511363089143135
-1.8793852415718169,-0.6840402866513373
-1.8671608529944035,-0.7167358990906009
-1.8543677091335748,-0.749213186831824
-1.8410097069048807,-0.7814622569785471
-1.8270909152852017,-0.8134732861516004
-1.8126155740733,-0.8452365234813985
-1.7975880925983339,-0.8767422935781549
-1.7820130483767358,-0.9079809994790934
-1.7658951857178538,-0.9389431255717817
-1.7492394142787917,-0.9696192404926739
-1.7320508075688772,-1.0000000000000002
-1.7143346014042247,-1.0300761498201083
-1.6960961923128521,-1.0598385284664096
-1.677341135890848,-1.0892780700300542
-1.6580751451100837,-1.1183858069414934
-1.6383040885779836,-1.1471528727020923
-1.6180339887498951,-1.175570504584946
-1.5972710200945857,-1.2036300463040968
-1.576021507213444,-1.2313229506513164
-1.5542919229139416,-1.2586407820996752
-1.532088886237956,-1.2855752193730785
-1.5094191604455443,-1.312118057981014
-1.4862896509547885,-1.3382612127177165
-1.4627074032383411,-1.3639967201249967
-1.4386796006773022,-1.3893167409179947
-1.4142135623730954,-1.414213562373095
-1.3893167409179945,-1.4386796006773024
-1.3639967201249972,-1.462707403238341
-1.3382612127177163,-1.4862896509547887
-1.3121180579810146,-1.509419160445544
-1.285575219373079,-1.5320888862379558
-1.2586407820996757,-1.5542919229139411
-1.2313229506513161,-1.5760215072134443
-1.2036300463040965,-1.5972710200945857
-1.1755705045849465,-1.6180339887498947
-1.1471528727020928,-1.6383040885779832
-1.1183858069414931,-1.6580751451100837
-1.089278070030054,-1.677341135890848
-1.05983852846641,-1.696096192312852
-1.030076149820109,-1.7143346014042242
-1.0000000000000009,-1.7320508075688767
-0.9696192404926737,-1.749239414278792
-0.9389431255717815,-1.765895185717854
-0.9079809994790938,-1.7820130483767356
-0.8767422935781555,-1.7975880925983336
-0.8452365234813983,-1.8126155740733
-0.8134732861516002,-1.827090915285202
-0.7814622569785477,-1.8410097069048805
-0.7492131868318246,-1.8543677091335746
-0.7167358990906014,-1.8671608529944033
-0.6840402866513371,-1.8793852415718169
-0.6511363089143133,-1.8910371511986337
-0.6180339887498951,-1.902113032590307
-0.5847434094454742,-1.9126095119260706
-0.5512747116339978,-1.922523391876638
-0.5176380902050413,-1.9318516525781366
-0.48384379119933557,-1.940591452551993
-0.4499021086877305,-1.9487401295704703
-0.4158233816355196,-1.9562952014676112
-0.3816179907530892,-1.963254366895328
-0.34729635533386066,-1.969615506024416
-0.31286893008046207,-1.9753766811902753
-0.27834620192013165,-1.9805361374831405
-0.24373868681029434,-1.9850923032826442
-0.20905692653530672,-1.9890437907365468
-0.1743114854953165,-1.992389396183491
-0.13951294748825116,-1.9951281005196484
-0.10467191248588861,-1.9972590695091477
-0.06979899340500152,-1.9987816540381915
-0.034904812874566996,-1.9996953903127825
-3.6739403974420594e-16,-2.0
0.03490481287456626,-1.9996953903127825
0.06979899340500256,-1.9987816540381915
0.10467191248588789,-1.9972590695091477
0.13951294748825044,-1.9951281005196486
0.17431148549531578,-1.992389396183491
0.20905692653530597,-1.9890437907365468
0.24373868681029537,-1.985092303282644
0.27834620192013093,-1.9805361374831407
0.31286893008046135,-1.9753766811902755
0.34729635533385994,-1.9696155060244163
0.3816179907530902,-1.9632543668953277
0.41582338163551885,-1.9562952014676112
0.44990210868772984,-1.9487401295704705
0.4838437911993349,-1.9405914525519932
0.5176380902050406,-1.9318516525781368
0.5512747116339988,-1.9225233918766376
0.5847434094454734,-1.9126095119260709
0.6180339887498945,-1.9021130325903073
0.6511363089143126,-1.891037151198634
0.684040286651338,-1.8793852415718166
0.7167358990906008,-1.8671608529944035
0.7492131868318239,-1.8543677091335748
0.781462256978547,-1.841009706904881
0.8134732861515995,-1.8270909152852022
0.8452365234813992,-1.8126155740732999
0.8767422935781548,-1.797588092598334
0.9079809994790933,-1.7820130483767358
0.9389431255717808,-1.7658951857178542
0.9696192404926746,-1.7492394142787913
1.0000000000000002,-1.7320508075688772
1.0300761498201083,-1.7143346014042247
1.0598385284664094,-1.6960961923128524
1.0892780700300533,-1.6773411358908485
1.118385806941494,-1.6580751451100832
1.147152872702092,-1.6383040885779836
1.1755705045849458,-1.6180339887498951
1.2036300463040959,-1.597271020094586
1.231322950651317,-1.5760215072134436
1.258640782099675,-1.5542919229139416
1.2855752193730785,-1.5320888862379562
1.312118057981014,-1.5094191604455445
1.3382612127177156,-1.4862896509547892
1.3639967201249972,-1.4627074032383407
1.3893167409179945,-1.4386796006773024
1.4142135623730947,-1.4142135623730954
1.4386796006773017,-1.3893167409179952
1.4627074032383414,-1.3639967201249965
1.4862896509547885,-1.3382612127177163
1.5094191604455438,-1.3121180579810148
1.5320888862379556,-1.2855752193730792
1.5542919229139411,-1.2586407820996757
1.576021507213444,-1.2313229506513164
1.5972710200945857,-1.2036300463040965
1.6180339887498947,-1.1755705045849467
1.6383040885779832,-1.147152872702093
1.6580751451100837,-1.1183858069414931
1.677341135890848,-1.089278070030054
1.696096192312852,-1.05983852846641
1.7143346014042242,-1.030076149820109
1.7320508075688767,-1.0000000000000009
1.7492394142787917,-0.9696192404926738
1.7658951857178538,-0.9389431255717816
1.7820130483767356,-0.9079809994790939
1.7975880925983336,-0.8767422935781556
1.8126155740733,-0.8452365234813984
1.827090915285202,-0.8134732861516003
1.8410097069048805,-0.7814622569785478
1.8543677091335746,-0.7492131868318247
1.867160852994403,-0.7167358990906015
1.8793852415718169,-0.6840402866513372
1.8910371511986337,-0.6511363089143134
1.902113032590307,-0.6180339887498952
1.9126095119260706,-0.5847434094454743
1.9225233918766378,-0.5512747116339979
1.9318516525781366,-0.5176380902050414
1.940591452551993,-0.48384379119933574
1.9487401295704703,-0.4499021086877307
1.9562952014676112,-0.41582338163551974
1.963254366895328,-0.38161799075308933
1.969615506024416,-0.3472963553338608
1.9753766811902753,-0.3128689300804622
1.9805361374831405,-0.27834620192013176
1.9850923032826442,-0.24373868681029445
1.9890437907365466,-0.20905692653530683
1.992389396183491,-0.17431148549531664
1.9951281005196484,-0.13951294748825127
1.9972590695091477,-0.10467191248588874
1.9987816540381915,-0.06979899340500165
1.9996953903127825,-0.03490481287456712
